ply
format ascii 1.0
comment Created by Blender 2.92.0 - www.blender.org
element vertex 8
property float x
property float y
property float z
element face 6
property list uchar uint vertex_indices
end_header
0.000000 0.000000 0.000000
0.000000 0.000000 2.000000
0.000000 2.000000 2.000000
0.000000 2.000000 0.000000
2.000000 2.000000 2.000000
2.000000 2.000000 0.000000
2.000000 0.000000 2.000000
2.000000 0.000000 0.000000
4 0 1 2 3
4 3 2 4 5
4 5 4 6 7
4 7 6 1 0
4 3 5 7 0
4 4 2 1 6
